<?xml version="1.0" standalone="no"?>
<!DOCTYPE svg PUBLIC "-//W3C//DTD SVG 1.1//EN"
  "http://www.w3.org/Graphics/SVG/1.1/DTD/svg11.dtd">
<svg version="1.1" xmlns="http://www.w3.org/2000/svg" xmlns:xlink="http://www.w3.org/1999/xlink" width="1280" height="720" viewBox="-1040.8888888888887 -32 1889.7777777777776 1063" id="ccdiagram"><filter id="grayscale"><feColorMatrix type="matrix" values="0.3333 0.3333 0.3333 0 0 0.3333 0.3333 0.3333 0 0 0.3333 0.3333 0.3333 0 0 0 0 0 1 0"></feColorMatrix></filter><defs><style type="text/css">@import url('https://fonts.googleapis.com/css?family=Open+Sans:400,700|Inconsolata:400');</style></defs><g><g pointer-events="auto"><g opacity="1"><g><g><polygon points="-64 81, 128 192, 128 192, 432 368, 432 405, 240 516, 176 516, -320 229, -320 192, -128 81" fill="#000000" opacity="0.2"></polygon><polygon points="-64 74, 128 185, 128 185, 432 361, 432 398, 240 509, 176 509, -320 222, -320 185, -128 74" fill="#ffffff" stroke-width="2" stroke="#818181"></polygon><polygon points="-96 93, 96 204, 400 379, 208 490, -288 204" fill="#607d8b" stroke-width="0" stroke="#818181"></polygon></g></g></g><g opacity="1"><g><g><polygon points="-352 248, 144 535, 144 572, -208 775, -272 775, -768 488, -768 451, -416 248" fill="#000000" opacity="0.2"></polygon><polygon points="-352 241, 144 527, 144 564, -208 768, -272 768, -768 481, -768 444, -416 241" fill="#ffffff" stroke-width="2" stroke="#818181"></polygon><polygon points="-384 259, 112 546, -240 749, -736 463" fill="#607d8b" stroke-width="0" stroke="#818181"></polygon></g></g></g></g><g pointer-events="auto"></g><g></g><g pointer-events="auto"></g><g></g><g pointer-events="auto"></g><g pointer-events="none"></g><g pointer-events="auto"><g><g cursor="cell"><line x1="96" y1="259" x2="-147" y2="224" stroke="red" stroke-width="8" opacity="0"></line><line x1="96" y1="259" x2="-147" y2="224" stroke="#8ed1fc" stroke-width="2" stroke-dasharray="8,6" stroke-linecap="butt"></line><polygon points="-160 222, -139 232, -143 224, -133 219, -160 222" stroke-linejoin="round" fill="#8ed1fc" stroke="#8ed1fc" stroke-width="1"></polygon></g></g><g><g cursor="cell"><line x1="-160" y1="222" x2="-129" y2="455" stroke="red" stroke-width="8" opacity="0"></line><line x1="-160" y1="222" x2="-129" y2="455" stroke="#00bcd4" stroke-width="2" stroke-dasharray="8,6" stroke-linecap="butt"></line><polygon points="-128 463, -118 448, -129 452, -141 449, -128 463" stroke-linejoin="round" fill="#00bcd4" stroke="#00bcd4" stroke-width="1"></polygon></g></g><g><g cursor="cell"><line x1="48" y1="564" x2="-118" y2="468" stroke="red" stroke-width="8" opacity="0"></line><line x1="48" y1="564" x2="-118" y2="468" stroke="#e91e63" stroke-width="2" stroke-dasharray="8,6" stroke-linecap="butt"></line><polygon points="-128 463, -119 477, -116 470, -102 468, -128 463" stroke-linejoin="round" fill="#e91e63" stroke="#e91e63" stroke-width="1"></polygon></g></g><g><g cursor="cell"><line x1="-64" y1="167" x2="86" y2="253" stroke="red" stroke-width="8" opacity="0"></line><line x1="-64" y1="167" x2="86" y2="253" stroke="#8bc34a" stroke-width="2" stroke-linecap="round"></line><polygon points="96 259, 87 244, 84 252, 70 254, 96 259" stroke-linejoin="round" fill="#8bc34a" stroke="#8bc34a" stroke-width="1"></polygon></g></g><g><g cursor="cell"><line x1="-192" y1="648" x2="-192" y2="648" stroke="red" stroke-width="8" opacity="0"></line><line x1="-192" y1="648" x2="-192" y2="648" stroke="#000000" stroke-width="2" stroke-linecap="round"></line></g></g><g><g cursor="cell"><line x1="-192" y1="648" x2="-192" y2="648" stroke="red" stroke-width="8" opacity="0"></line><line x1="-192" y1="648" x2="-192" y2="648" stroke="#000000" stroke-width="2" stroke-linecap="round"></line></g></g><g><g cursor="cell"><line x1="-560" y1="435" x2="-506" y2="403" stroke="red" stroke-width="8" opacity="0"></line><line x1="-560" y1="435" x2="-506" y2="403" stroke="#000000" stroke-width="2" stroke-linecap="round"></line><polygon points="-496 398, -522 403, -508 405, -505 413, -496 398" stroke-linejoin="round" fill="#000000" stroke="#000000" stroke-width="1"></polygon></g></g><g><g cursor="cell"><line x1="-544" y1="370" x2="-416" y2="296" stroke="red" stroke-width="8" opacity="0"></line><line x1="-544" y1="370" x2="-416" y2="296" stroke="#e91e63" stroke-width="2" stroke-dasharray="8,6" stroke-linecap="butt"></line></g></g><g><g cursor="cell"><line x1="-192" y1="648" x2="-246" y2="679" stroke="red" stroke-width="8" opacity="0"></line><line x1="-192" y1="648" x2="-246" y2="679" stroke="#000000" stroke-width="2" stroke-linecap="round"></line><polygon points="-256 685, -230 679, -244 677, -247 670, -256 685" stroke-linejoin="round" fill="#000000" stroke="#000000" stroke-width="1"></polygon></g></g><g><g cursor="cell"><line x1="-112" y1="250" x2="-10" y2="309" stroke="red" stroke-width="8" opacity="0"></line><line x1="-112" y1="250" x2="-10" y2="309" stroke="#8bc34a" stroke-width="2" stroke-linecap="round"></line><polygon points="0 315, -9 300, -12 307, -26 309, 0 315" stroke-linejoin="round" fill="#8bc34a" stroke="#8bc34a" stroke-width="1"></polygon></g></g><g><g cursor="cell"><line x1="-208" y1="712" x2="48" y2="564" stroke="red" stroke-width="8" opacity="0"></line><line x1="-208" y1="712" x2="48" y2="564" stroke="#e91e63" stroke-width="2" stroke-dasharray="8,6" stroke-linecap="butt"></line></g></g><g><g cursor="cell"><line x1="-256" y1="685" x2="-208" y2="712" stroke="red" stroke-width="8" opacity="0"></line><line x1="-256" y1="685" x2="-208" y2="712" stroke="#e91e63" stroke-width="2" stroke-dasharray="8,6" stroke-linecap="butt"></line></g></g><g><g cursor="cell"><line x1="-192" y1="648" x2="-192" y2="648" stroke="red" stroke-width="8" opacity="0"></line><line x1="-192" y1="648" x2="-192" y2="648" stroke="#000000" stroke-width="2" stroke-linecap="round"></line></g></g><g><g cursor="cell"><line x1="-368" y1="546" x2="-192" y2="648" stroke="red" stroke-width="8" opacity="0"></line><line x1="-368" y1="546" x2="-192" y2="648" stroke="#000000" stroke-width="2" stroke-linecap="round"></line></g></g><g><g cursor="cell"><line x1="-416" y1="296" x2="-346" y2="337" stroke="red" stroke-width="8" opacity="0"></line><line x1="-416" y1="296" x2="-346" y2="337" stroke="#e91e63" stroke-width="2" stroke-dasharray="8,6" stroke-linecap="butt"></line><polygon points="-336 342, -345 327, -348 335, -362 337, -336 342" stroke-linejoin="round" fill="#e91e63" stroke="#e91e63" stroke-width="1"></polygon></g></g><g><g cursor="cell"><line x1="-496" y1="398" x2="-544" y2="370" stroke="red" stroke-width="8" opacity="0"></line><line x1="-496" y1="398" x2="-544" y2="370" stroke="#e91e63" stroke-width="2" stroke-dasharray="8,6" stroke-linecap="butt"></line></g></g><g><g cursor="cell"><line x1="0" y1="315" x2="-150" y2="228" stroke="red" stroke-width="8" opacity="0"></line><line x1="0" y1="315" x2="-150" y2="228" stroke="#00bcd4" stroke-width="2" stroke-dasharray="8,6" stroke-linecap="butt"></line><polygon points="-160 222, -151 237, -148 229, -134 227, -160 222" stroke-linejoin="round" fill="#00bcd4" stroke="#00bcd4" stroke-width="1"></polygon></g></g><g><g cursor="cell"><line x1="-368" y1="546" x2="-560" y2="435" stroke="red" stroke-width="8" opacity="0"></line><line x1="-368" y1="546" x2="-560" y2="435" stroke="#000000" stroke-width="2" stroke-linecap="round"></line></g></g><g><g cursor="cell"><line x1="-96" y1="167" x2="-112" y2="250" stroke="red" stroke-width="8" opacity="0"></line><line x1="-96" y1="167" x2="-112" y2="250" stroke="#8bc34a" stroke-width="2" stroke-linecap="round"></line></g></g><g><g cursor="cell"><line x1="-192" y1="222" x2="-328" y2="336" stroke="red" stroke-width="8" opacity="0"></line><line x1="-192" y1="222" x2="-328" y2="336" stroke="#8ed1fc" stroke-width="2" stroke-dasharray="8,6" stroke-linecap="butt"></line><polygon points="-336 342, -313 334, -326 334, -331 327, -336 342" stroke-linejoin="round" fill="#8ed1fc" stroke="#8ed1fc" stroke-width="1"></polygon></g></g><g><g cursor="cell"><line x1="-192" y1="648" x2="-192" y2="648" stroke="red" stroke-width="8" opacity="0"></line><line x1="-192" y1="648" x2="-192" y2="648" stroke="#000000" stroke-width="2" stroke-linecap="round"></line></g></g></g><g pointer-events="auto"><g opacity="1"><g id="25c81701-1657-4c76-90ed-f56a4d8700ca" transform="translate(0 0)"><g><polygon points="-80 102, -48 120, -80 139, -112 120" fill="#ff5722"></polygon><polygon points="-112 157, -80 176, -80 139, -112 120" fill="#ee3900" stroke="#fff2ee"></polygon><polygon points="-80 176, -48 157, -48 120, -80 139" fill="#bb2d00" stroke="#fff2ee"></polygon><polygon points="-80 102, -112 120, -112 157, -80 176, -48 157, -48 120" fill="none" stroke="#000000" stroke-width="2"></polygon></g></g></g><g opacity="1"><g id="206ea6ca-e730-409b-833f-812ad733c3d2" transform="translate(0 0)"><g><polygon points="128 222, 160 241, 128 259, 96 241" fill="#8ed1fc"></polygon><polygon points="96 278, 128 296, 128 259, 96 241" fill="#5cbdfb" stroke="#fff"></polygon><polygon points="128 296, 160 278, 160 241, 128 259" fill="#2ba9f9" stroke="#fff"></polygon><polygon points="128 222, 96 241, 96 278, 128 296, 160 278, 160 241" fill="none" stroke="#000000" stroke-width="2"></polygon></g></g></g><g opacity="1"><g id="2de61892-e265-41ed-971a-6c45cdbccf67" transform="translate(0 0)"><g><polygon points="-176 157, -144 176, -176 194, -208 176" fill="#9c27b0"></polygon><polygon points="-208 213, -176 231, -176 194, -208 176" fill="#771e86" stroke="#e6b5ee"></polygon><polygon points="-176 231, -144 213, -144 176, -176 194" fill="#52145d" stroke="#e6b5ee"></polygon><polygon points="-176 157, -208 176, -208 213, -176 231, -144 213, -144 176" fill="none" stroke="#000000" stroke-width="2"></polygon></g></g></g><g opacity="1"><g id="db795c4c-cfc6-419f-a2a5-b9f8bedb00bb" transform="translate(0 0)"><g><polygon points="32 278, 64 296, 32 315, 0 296" fill="#00bcd4"></polygon><polygon points="0 333, 32 352, 32 315, 0 296" fill="#008fa1" stroke="#a1f4ff"></polygon><polygon points="32 352, 64 333, 64 296, 32 315" fill="#00626e" stroke="#a1f4ff"></polygon><polygon points="32 278, 0 296, 0 333, 32 352, 64 333, 64 296" fill="none" stroke="#000000" stroke-width="2"></polygon></g></g></g></g><g pointer-events="auto"></g><g pointer-events="auto"><g opacity="1"><g id="364bd944-a3fe-456a-820e-6755057c6e24" transform="translate(0 0)"><svg x="-256" y="685" overflow="visible"><g transform="scale(1.2074767078498865) matrix(0.707 0.409 -0.707 0.409 0 0)"><circle cx="0" cy="0" fill="transparent" r="25"></circle><svg width="50" height="50" x="-25" y="-25" style=""><svg xmlns="http://www.w3.org/2000/svg" viewBox="0 0 50 50"><g id="Reference" fill="#cd2264"><path d="M43.75 48.5H6.25a1 1 0 0 1-1-1v-45a1 1 0 0 1 1-1h37.5a1 1 0 0 1 1 1v45a1 1 0 0 1-1 1zm-36.5-2h35.5v-43H7.25z"></path><path d="M19.38 15.69h-6.57a1 1 0 0 1-1-1V8.12a1 1 0 0 1 1-1h6.57a1 1 0 0 1 1 1v6.57a1 1 0 0 1-1 1zm-5.57-2h4.57V9.12h-4.57zM19.38 28.81h-6.57a1 1 0 0 1-1-1v-6.56a1 1 0 0 1 1-1h6.57a1 1 0 0 1 1 1v6.56a1 1 0 0 1-1 1zm-5.57-2h4.57v-4.56h-4.57zM19.38 41.94h-6.57a1 1 0 0 1-1-1v-6.56a1 1 0 0 1 1-1h6.57a1 1 0 0 1 1 1v6.56a1 1 0 0 1-1 1zm-5.57-2h4.57v-4.56h-4.57zM23.13 11.81h15.94v2H23.13zM23.13 24.94h15.94v2H23.13zM23.13 38.06h15.94v2H23.13z"></path></g></svg></svg></g></svg></g></g><g opacity="1"><g id="790f2e6e-5e60-4152-8007-8f3dde88d81d" transform="translate(0 0)"><svg x="-496" y="398" overflow="visible"><g transform="scale(1.2074767078498865) matrix(0.707 0.409 -0.707 0.409 0 0)"><circle cx="0" cy="0" fill="transparent" r="25"></circle><svg width="50" height="50" x="-25" y="-25" style=""><svg xmlns="http://www.w3.org/2000/svg" viewBox="0 0 50 50"><g id="Reference" fill="#cd2264"><path d="M43.75 48.5H6.25a1 1 0 0 1-1-1v-45a1 1 0 0 1 1-1h37.5a1 1 0 0 1 1 1v45a1 1 0 0 1-1 1zm-36.5-2h35.5v-43H7.25z"></path><path d="M19.38 15.69h-6.57a1 1 0 0 1-1-1V8.12a1 1 0 0 1 1-1h6.57a1 1 0 0 1 1 1v6.57a1 1 0 0 1-1 1zm-5.57-2h4.57V9.12h-4.57zM19.38 28.81h-6.57a1 1 0 0 1-1-1v-6.56a1 1 0 0 1 1-1h6.57a1 1 0 0 1 1 1v6.56a1 1 0 0 1-1 1zm-5.57-2h4.57v-4.56h-4.57zM19.38 41.94h-6.57a1 1 0 0 1-1-1v-6.56a1 1 0 0 1 1-1h6.57a1 1 0 0 1 1 1v6.56a1 1 0 0 1-1 1zm-5.57-2h4.57v-4.56h-4.57zM23.13 11.81h15.94v2H23.13zM23.13 24.94h15.94v2H23.13zM23.13 38.06h15.94v2H23.13z"></path></g></svg></svg></g></svg></g></g><g opacity="1"><g id="7dcebfed-5177-4fe5-98cd-2c4dc0815a88" transform="translate(0 0)"><svg x="-336" y="342" overflow="visible"><g transform="scale(1.2074767078498865) matrix(0.707 0.409 -0.707 0.409 0 0)"><circle cx="0" cy="0" fill="transparent" r="25"></circle><svg width="50" height="50" x="-25" y="-25" style=""><svg xmlns="http://www.w3.org/2000/svg" viewBox="0 0 50 50"><g id="Working" fill="#3b48cc"><path d="M11 11.94H1.5V1.5H11zm-7.5-2H9V3.5H3.5zM11 24.12H1.5V13.69H11zm-7.5-2H9v-6.43H3.5zM11 36.31H1.5V25.88H11zm-7.5-2H9v-6.43H3.5zM11 48.5H1.5V38.06H11zm-7.5-2H9v-6.44H3.5zM22.25 11.94h-9.5V1.5h9.5zm-7.5-2h5.5V3.5h-5.5zM22.25 24.12h-9.5V13.69h9.5zm-7.5-2h5.5v-6.43h-5.5zM22.25 36.31h-9.5V25.88h9.5zm-7.5-2h5.5v-6.43h-5.5zM22.25 48.5h-9.5V38.06h9.5zm-7.5-2h5.5v-6.44h-5.5zM48.5 11.94H24V1.5h24.5zm-22.5-2h20.5V3.5H26zM48.5 24.12H24V13.69h24.5zm-22.5-2h20.5v-6.43H26zM48.5 36.31H24V25.88h24.5zm-22.5-2h20.5v-6.43H26zM48.5 48.5H24V38.06h24.5zm-22.5-2h20.5v-6.44H26z"></path></g></svg></svg></g></svg></g></g><g opacity="1"><g id="5b634fdd-c885-46da-8f22-6762541ba7ec" transform="translate(0 0)"><svg x="-128" y="463" overflow="visible"><g transform="scale(1.2074767078498865) matrix(0.707 0.409 -0.707 0.409 0 0)"><circle cx="0" cy="0" fill="transparent" r="25"></circle><svg width="50" height="50" x="-25" y="-25" style=""><svg xmlns="http://www.w3.org/2000/svg" viewBox="0 0 50 50"><g id="Working" fill="#3b48cc"><path d="M11 11.94H1.5V1.5H11zm-7.5-2H9V3.5H3.5zM11 24.12H1.5V13.69H11zm-7.5-2H9v-6.43H3.5zM11 36.31H1.5V25.88H11zm-7.5-2H9v-6.43H3.5zM11 48.5H1.5V38.06H11zm-7.5-2H9v-6.44H3.5zM22.25 11.94h-9.5V1.5h9.5zm-7.5-2h5.5V3.5h-5.5zM22.25 24.12h-9.5V13.69h9.5zm-7.5-2h5.5v-6.43h-5.5zM22.25 36.31h-9.5V25.88h9.5zm-7.5-2h5.5v-6.43h-5.5zM22.25 48.5h-9.5V38.06h9.5zm-7.5-2h5.5v-6.44h-5.5zM48.5 11.94H24V1.5h24.5zm-22.5-2h20.5V3.5H26zM48.5 24.12H24V13.69h24.5zm-22.5-2h20.5v-6.43H26zM48.5 36.31H24V25.88h24.5zm-22.5-2h20.5v-6.43H26zM48.5 48.5H24V38.06h24.5zm-22.5-2h20.5v-6.44H26z"></path></g></svg></svg></g></svg></g></g><g opacity="1"><g id="6334db5f-16ff-437e-9d44-b0456cd0c576" transform="translate(0 0)"><svg x="-368" y="546" overflow="visible"><g transform="scale(0.8944271909999159) matrix(0.707 0.409 -0.707 0.409 0 0)"><circle cx="0" cy="0" fill="#000000" r="23"></circle><svg width="32" height="32" x="-16" y="-16" style="fill: rgb(255, 255, 255);"><svg xmlns="http://www.w3.org/2000/svg" width="32" height="32" viewBox="0 0 32 32"><path d="M14.929 20.875l-.268 6.571-.036.393-7.5-.518c-.929-.071-1.696-.946-2.036-1.732-.714-1.661.214-3.625.75-5.214 0 0 1.375.214 9.089.5zM8.018 10.411l3.214 6.768-2.625-1.643c-4.018 4.589-4.393 8-4.393 8L.821 17.161C.125 16.125.75 15 .75 15s.625-1.125 2.036-3.357l-2.5-1.536zM30 19.643l-3.357 6.411c-.464 1.161-1.75 1.268-1.75 1.268s-1.268.125-3.911.214l.143 2.929-4.107-6.554 3.768-6.464.125 3.089c6.054.732 9.089-.893 9.089-.893zm-14.018-16.5s-.839 1.107-4.732 7.768L5.589 7.572l-.339-.214 4.018-6.357c.5-.786 1.625-1.071 2.5-.982 1.786.161 3.071 1.893 4.214 3.125zm11.697 5.482l3.786 6.482c.482.804.196 1.929-.268 2.679-.964 1.5-3.107 1.857-4.714 2.304 0 0-.607-1.268-4.732-7.786l5.589-3.482zm-2.554-4.036l2.536-1.482-3.929 6.661-7.482-.357 2.696-1.536C16.803 2.179 13.964.214 13.964.214l7.232.018c1.25-.107 1.929.964 1.929.964s.696 1.089 2 3.393z"></path></svg></svg></g></svg></g></g></g><g pointer-events="auto"><g opacity="1"><g id="2f582f76-79f3-4f7a-8550-feb0b50f2444" transform="translate(0 0)"><svg x="48" y="139" overflow="visible"><text stroke="#ffffff" stroke-width="4" font-family="Open Sans" y="26.24" font-size="16pt" fill="#607d8b" font-weight="bold" transform="matrix(0.707 0.409 -0.707 0.409 0 0)" xml:space="preserve"><tspan x="8" dy="0">Kubernetes Cluster</tspan></text><text font-family="Open Sans" y="26.24" font-size="16pt" fill="#607d8b" font-weight="bold" transform="matrix(0.707 0.409 -0.707 0.409 0 0)" xml:space="preserve"><tspan x="8" dy="0">Kubernetes Cluster</tspan></text></svg></g></g><g opacity="1"><g id="71b291f2-ed49-4caf-9855-c89e4e121c3a"><svg x="-160" y="130" overflow="visible"><text stroke="#ffffff" stroke-width="4" font-family="Open Sans" y="23.96" font-size="14pt" fill="#000000" font-weight="bold" transform="matrix(0.707 0.409 -0.707 0.409 0 0)" xml:space="preserve"><tspan x="8" dy="0">es-rollover-controller</tspan></text><text font-family="Open Sans" y="23.96" font-size="14pt" fill="#000000" font-weight="bold" transform="matrix(0.707 0.409 -0.707 0.409 0 0)" xml:space="preserve"><tspan x="8" dy="0">es-rollover-controller</tspan></text></svg></g></g><g opacity="1"><g id="3c34af86-37d5-4eda-a890-c84d80cbfc0a"><svg x="80" y="268" overflow="visible"><text stroke="#ffffff" stroke-width="4" font-family="Open Sans" y="23.96" font-size="14pt" fill="#000000" font-weight="bold" transform="matrix(0.707 0.409 -0.707 0.409 0 0)" xml:space="preserve"><tspan x="8" dy="0">my-nginx</tspan></text><text font-family="Open Sans" y="23.96" font-size="14pt" fill="#000000" font-weight="bold" transform="matrix(0.707 0.409 -0.707 0.409 0 0)" xml:space="preserve"><tspan x="8" dy="0">my-nginx</tspan></text></svg></g></g><g opacity="1"><g id="9ee2d31c-91c7-4685-bc89-ca370fb3d0f9"><svg x="-24" y="319" overflow="visible"><text stroke="#ffffff" stroke-width="4" font-family="Open Sans" y="23.96" font-size="14pt" fill="#000000" font-weight="bold" transform="matrix(0.707 0.409 -0.707 0.409 0 0)" xml:space="preserve"><tspan x="8" dy="0">customapp</tspan></text><text font-family="Open Sans" y="23.96" font-size="14pt" fill="#000000" font-weight="bold" transform="matrix(0.707 0.409 -0.707 0.409 0 0)" xml:space="preserve"><tspan x="8" dy="0">customapp</tspan></text></svg></g></g><g opacity="1"><g id="e4fe5e0f-fd31-4b35-bda3-11012de60c21"><svg x="-224" y="203" overflow="visible"><text stroke="#ffffff" stroke-width="4" font-family="Open Sans" y="23.96" font-size="14pt" fill="#000000" font-weight="bold" transform="matrix(0.707 0.409 -0.707 0.409 0 0)" xml:space="preserve"><tspan x="8" dy="0">filebeat</tspan></text><text font-family="Open Sans" y="23.96" font-size="14pt" fill="#000000" font-weight="bold" transform="matrix(0.707 0.409 -0.707 0.409 0 0)" xml:space="preserve"><tspan x="8" dy="0">filebeat</tspan></text></svg></g></g><g opacity="1"><g id="83fa5489-bd90-4f59-bbf7-4b305e7806a0" transform="translate(0 0)"><svg x="160" y="278" overflow="visible"><text stroke="#ffffff" stroke-width="0" font-family="Open Sans" y="23.96" font-size="14pt" fill="#f5b720" font-weight="bold" transform="matrix(0.707 0.409 -0.707 0.409 0 0)" xml:space="preserve"><tspan x="8" dy="0">labels:</tspan><tspan x="8" dy="1.1em">  elastic-index: nginx-logs</tspan></text><text font-family="Open Sans" y="23.96" font-size="14pt" fill="#f5b720" font-weight="bold" transform="matrix(0.707 0.409 -0.707 0.409 0 0)" xml:space="preserve"><tspan x="8" dy="0">labels:</tspan><tspan x="8" dy="1.1em">  elastic-index: nginx-logs</tspan></text></svg></g></g><g opacity="1"><g id="7f9277f8-d157-4296-85b3-3e6f4e29be82" transform="translate(0 0)"><svg x="64" y="333" overflow="visible"><text stroke="#ffffff" stroke-width="0" font-family="Open Sans" y="23.96" font-size="14pt" fill="#f5b720" font-weight="bold" transform="matrix(0.707 0.409 -0.707 0.409 0 0)" xml:space="preserve"><tspan x="8" dy="0">labels:</tspan><tspan x="8" dy="1.1em">  elastic-index: customapp</tspan></text><text font-family="Open Sans" y="23.96" font-size="14pt" fill="#f5b720" font-weight="bold" transform="matrix(0.707 0.409 -0.707 0.409 0 0)" xml:space="preserve"><tspan x="8" dy="0">labels:</tspan><tspan x="8" dy="1.1em">  elastic-index: customapp</tspan></text></svg></g></g><g opacity="1"><g id="8073c87d-3f56-4759-8d9e-f5adfa2ca1e6" transform="translate(0 0)"><svg x="-240" y="305" overflow="visible"><text stroke="#ffffff" stroke-width="4" font-family="Open Sans" y="26.24" font-size="16pt" fill="#607d8b" font-weight="bold" transform="matrix(0.707 0.409 -0.707 0.409 0 0)" xml:space="preserve"><tspan x="8" dy="0">Elasticsearch Cluster</tspan></text><text font-family="Open Sans" y="26.24" font-size="16pt" fill="#607d8b" font-weight="bold" transform="matrix(0.707 0.409 -0.707 0.409 0 0)" xml:space="preserve"><tspan x="8" dy="0">Elasticsearch Cluster</tspan></text></svg></g></g><g opacity="1"><g id="1457c4cd-1100-47ee-9b0b-1a7222be9040" transform="translate(0 0)"><svg x="-592" y="472" overflow="visible"><text stroke="#000000" stroke-width="2" font-family="Open Sans" y="23.96" font-size="14pt" fill="#e6e7e8" font-weight="bold" transform="matrix(0.707 0.409 -0.707 0.409 0 0)" xml:space="preserve"><tspan x="8" dy="0">Index Template: customapp_es-rollover-controller</tspan><tspan x="8" dy="1.1em">                                       index-pattern: customapp-*</tspan><tspan x="8" dy="1.1em">                               ILM Policy: es-rollover-controller</tspan></text><text font-family="Open Sans" y="23.96" font-size="14pt" fill="#e6e7e8" font-weight="bold" transform="matrix(0.707 0.409 -0.707 0.409 0 0)" xml:space="preserve"><tspan x="8" dy="0">Index Template: customapp_es-rollover-controller</tspan><tspan x="8" dy="1.1em">                                       index-pattern: customapp-*</tspan><tspan x="8" dy="1.1em">                               ILM Policy: es-rollover-controller</tspan></text></svg></g></g><g opacity="1"><g id="6b2b340d-c7f8-4c09-b8aa-d4821b969c4b" transform="translate(0 0)"><svg x="-448" y="389" overflow="visible"><text stroke="#000000" stroke-width="2" font-family="Open Sans" y="23.96" font-size="14pt" fill="#e6e7e8" font-weight="bold" transform="matrix(0.707 0.409 -0.707 0.409 0 0)" xml:space="preserve"><tspan x="8" dy="0">Index Template: nginx-logs_es-rollover-controller</tspan><tspan x="8" dy="1.1em">index-pattern: nginx-logs-*</tspan><tspan x="8" dy="1.1em">ILM Policy: es-rollover-controller</tspan></text><text font-family="Open Sans" y="23.96" font-size="14pt" fill="#e6e7e8" font-weight="bold" transform="matrix(0.707 0.409 -0.707 0.409 0 0)" xml:space="preserve"><tspan x="8" dy="0">Index Template: nginx-logs_es-rollover-controller</tspan><tspan x="8" dy="1.1em">index-pattern: nginx-logs-*</tspan><tspan x="8" dy="1.1em">ILM Policy: es-rollover-controller</tspan></text></svg></g></g><g opacity="1"><g id="f8583183-32d5-4032-935b-3defa6e7b140"><svg x="-448" y="315" overflow="visible"><text stroke="#ffffff" stroke-width="0" font-family="Open Sans" y="23.96" font-size="14pt" fill="#8ed1fc" font-weight="bold" transform="matrix(0.707 0.409 -0.707 0.409 0 0)" xml:space="preserve"><tspan x="8" dy="0">Index: nginx-logs-000001</tspan></text><text font-family="Open Sans" y="23.96" font-size="14pt" fill="#8ed1fc" font-weight="bold" transform="matrix(0.707 0.409 -0.707 0.409 0 0)" xml:space="preserve"><tspan x="8" dy="0">Index: nginx-logs-000001</tspan></text></svg></g></g><g opacity="1"><g id="5edf31e7-6e95-4bb7-8a96-2cfe4329bc2d"><svg x="-240" y="435" overflow="visible"><text stroke="#ffffff" stroke-width="0" font-family="Open Sans" y="23.96" font-size="14pt" fill="#00bcd4" font-weight="bold" transform="matrix(0.707 0.409 -0.707 0.409 0 0)" xml:space="preserve"><tspan x="8" dy="0">Index: customapp-000001</tspan></text><text font-family="Open Sans" y="23.96" font-size="14pt" fill="#00bcd4" font-weight="bold" transform="matrix(0.707 0.409 -0.707 0.409 0 0)" xml:space="preserve"><tspan x="8" dy="0">Index: customapp-000001</tspan></text></svg></g></g><g opacity="1"><g id="63281842-608b-4df0-8b96-e3b90d6a0da1" transform="translate(0 0)"><svg x="-288" y="352" overflow="visible"><text stroke="#ffffff" stroke-width="0" font-family="Open Sans" y="23.96" font-size="14pt" fill="#8ed1fc" font-weight="bold" transform="matrix(0.707 0.409 -0.707 0.409 0 0)" xml:space="preserve"><tspan x="8" dy="0">Alias:</tspan><tspan x="8" dy="1.1em">nginx-logs_writealias</tspan></text><text font-family="Open Sans" y="23.96" font-size="14pt" fill="#8ed1fc" font-weight="bold" transform="matrix(0.707 0.409 -0.707 0.409 0 0)" xml:space="preserve"><tspan x="8" dy="0">Alias:</tspan><tspan x="8" dy="1.1em">nginx-logs_writealias</tspan></text></svg></g></g><g opacity="1"><g id="9d9938d1-945c-42fb-afcd-513ec7d3a088" transform="translate(0 0)"><svg x="-80" y="472" overflow="visible"><text stroke="#ffffff" stroke-width="0" font-family="Open Sans" y="23.96" font-size="14pt" fill="#00bcd4" font-weight="bold" transform="matrix(0.707 0.409 -0.707 0.409 0 0)" xml:space="preserve"><tspan x="8" dy="0">Alias:</tspan><tspan x="8" dy="1.1em">customapp_writealias</tspan></text><text font-family="Open Sans" y="23.96" font-size="14pt" fill="#00bcd4" font-weight="bold" transform="matrix(0.707 0.409 -0.707 0.409 0 0)" xml:space="preserve"><tspan x="8" dy="0">Alias:</tspan><tspan x="8" dy="1.1em">customapp_writealias</tspan></text></svg></g></g><g opacity="1"><g id="432572a3-71eb-4ed7-b53b-8fed8262d20c"><svg x="-496" y="490" overflow="visible"><text stroke="#000000" stroke-width="2" font-family="Open Sans" y="23.96" font-size="14pt" fill="#e6e7e8" font-weight="bold" transform="matrix(0.707 0.409 -0.707 0.409 0 0)" xml:space="preserve"><tspan x="8" dy="0">ILM Policy: es-rollover-controller</tspan></text><text font-family="Open Sans" y="23.96" font-size="14pt" fill="#e6e7e8" font-weight="bold" transform="matrix(0.707 0.409 -0.707 0.409 0 0)" xml:space="preserve"><tspan x="8" dy="0">ILM Policy: es-rollover-controller</tspan></text></svg></g></g></g><g></g></g></svg>